                                                                                                
_/_/_/_/_/  _/_/_/_/    _/_/    _/      _/      _/        _/_/_/  _/_/_/    _/_/_/_/  _/_/_/    
   _/      _/        _/    _/  _/_/  _/_/      _/          _/    _/    _/  _/        _/    _/   
  _/      _/_/_/    _/_/_/_/  _/  _/  _/      _/          _/    _/    _/  _/_/_/    _/_/_/      
 _/      _/        _/    _/  _/      _/      _/          _/    _/    _/  _/        _/    _/     
_/      _/_/_/_/  _/    _/  _/      _/      _/_/_/_/  _/_/_/  _/_/_/    _/_/_/_/  _/    _/      
                                                                                            

${AnsiColor.BRIGHT_BLUE}:: JHipster 🤓  :: Running Spring Boot ${spring-boot.version} ::
:: http://www.jhipster.tech ::${AnsiColor.DEFAULT}
